<svg xmlns="http://www.w3.org/2000/svg" viewBox="0 0 111.195 127.897">
  <defs>
    <style>
      .cls-1, .cls-2, .cls-6 {
        fill: none;
      }

      .cls-1 {
        stroke: #00bed6;
        stroke-width: 8px;
      }

      .cls-1, .cls-2, .cls-3, .cls-4, .cls-5, .cls-6 {
        stroke-linecap: round;
        stroke-linejoin: round;
        stroke-miterlimit: 10;
      }

      .cls-2, .cls-3, .cls-4, .cls-5, .cls-6 {
        stroke: #2e2e2e;
      }

      .cls-2 {
        stroke-width: 5px;
      }

      .cls-3, .cls-4 {
        fill: #00bed6;
      }

      .cls-3, .cls-5, .cls-6 {
        stroke-width: 4px;
      }

      .cls-4 {
        stroke-width: 2px;
      }

      .cls-5 {
        fill: #fff;
      }
    </style>
  </defs>
  <g id="Praktik_-_01" data-name="Praktik - 01" transform="translate(-199.301 -418)">
    <path id="Path_3241" data-name="Path 3241" class="cls-1" d="M7.123,76.018A51.6,51.6,0,1,1,105.195,53.6a51.3,51.3,0,0,1-5.123,22.443" transform="translate(201.301 420)"/>
    <path id="Path_3242" data-name="Path 3242" class="cls-2" d="M10.81,42.422a31.614,31.614,0,0,1,63.227,0" transform="translate(212.464 431.175)"/>
    <path id="Path_3243" data-name="Path 3243" class="cls-3" d="M43.907,25.874l-2.675-3.4a9.588,9.588,0,0,0-7.322-3.514H21.781a1.9,1.9,0,0,0-1.791,1.972v2.516c0,3.287,2.086,4.081,4.851,4.806H21.418L31.3,39.907Z" transform="translate(224.095 441.489)"/>
    <path id="Path_3244" data-name="Path 3244" class="cls-3" d="M67.215,53.038,53.771,39.64,22.94,60.723h0a14.815,14.815,0,0,0,10.315,3.106l.567-.045,9.7,11.562" transform="translate(227.833 467.69)"/>
    <path id="Path_3245" data-name="Path 3245" class="cls-4" d="M42.47,45.55" transform="translate(252.577 475.178)"/>
    <path id="Path_3246" data-name="Path 3246" class="cls-5" d="M16.13,99.583,34.7,80.949h0A25.682,25.682,0,0,0,52.017,73.4L69.2,56.215a4.926,4.926,0,0,0,0-6.937h0a4.926,4.926,0,0,0-6.937,0l-2.176,2.176L64.644,46.9a4.926,4.926,0,0,0,0-6.937h0a4.926,4.926,0,0,0-6.937,0L53.15,44.518l6.28-6.28a4.926,4.926,0,0,0,0-6.937h0a4.926,4.926,0,0,0-6.937,0l-6.28,6.28,8.025-8.025a4.926,4.926,0,0,0,0-6.937h0a4.926,4.926,0,0,0-6.937,0l-12.6,12.6" transform="translate(219.204 444.314)"/>
    <path id="Path_3247" data-name="Path 3247" class="cls-5" d="M19.578,40.14,6.52,52.4" transform="translate(207.028 468.324)"/>
    <path id="Path_3248" data-name="Path 3248" class="cls-3" d="M22.679,40.552,17.9,35.768a4.926,4.926,0,0,0-6.937,0h0a4.926,4.926,0,0,0,0,6.937l4.783,4.783a4.926,4.926,0,0,0,6.937,0h0A4.885,4.885,0,0,0,22.679,40.552Z" transform="translate(210.842 460.975)"/>
    <path id="Path_3249" data-name="Path 3249" class="cls-3" d="M27.069,38.822l-7.164-7.164a4.926,4.926,0,0,0-6.937,0h0a4.926,4.926,0,0,0,0,6.937l7.164,7.164a4.926,4.926,0,0,0,6.937,0h0A4.885,4.885,0,0,0,27.069,38.822Z" transform="translate(213.389 455.768)"/>
    <path id="Path_3250" data-name="Path 3250" class="cls-3" d="M31.092,36.725l-8.887-8.887a4.926,4.926,0,0,0-6.937,0h0a4.926,4.926,0,0,0,0,6.937l8.887,8.887a4.926,4.926,0,0,0,6.937,0h0A4.926,4.926,0,0,0,31.092,36.725Z" transform="translate(216.303 450.928)"/>
    <path id="Path_3251" data-name="Path 3251" class="cls-3" d="M35.128,34.651,24.5,24.018a4.926,4.926,0,0,0-6.937,0h0a4.926,4.926,0,0,0,0,6.937L28.191,41.588a4.926,4.926,0,0,0,6.937,0h0A4.926,4.926,0,0,0,35.128,34.651Z" transform="translate(219.204 446.088)"/>
    <line id="Line_76" data-name="Line 76" class="cls-3" x2="5.94" transform="translate(248.959 469.743)"/>
    <line id="Line_77" data-name="Line 77" class="cls-6" x2="3.559" y2="3.582" transform="translate(283.01 519.754)"/>
  </g>
</svg>
