<svg xmlns="http://www.w3.org/2000/svg" viewBox="0 0 101.22 121.897">
  <defs>
    <style>
      .cls-1, .cls-3 {
        fill: #00bed6;
      }

      .cls-2, .cls-4 {
        fill: none;
        stroke-linecap: round;
      }

      .cls-2, .cls-3, .cls-4 {
        stroke: #2e2e2e;
        stroke-miterlimit: 10;
        stroke-width: 4px;
      }

      .cls-2 {
        stroke-linejoin: round;
      }

      .cls-5 {
        fill: #2e2e2e;
      }
    </style>
  </defs>
  <g id="Praktik_-_02" data-name="Praktik - 02" transform="translate(-545 -421.801)">
    <path id="Path_3233" data-name="Path 3233" class="cls-1" d="M35.847,31.219A12.289,12.289,0,1,1,23.559,18.93,12.291,12.291,0,0,1,35.847,31.219Z" transform="translate(559.049 445.398)"/>
    <path id="Path_3234" data-name="Path 3234" class="cls-2" d="M87.3,29.848a5.8,5.8,0,0,0-8.177.7L65.848,44.2h.022a5.924,5.924,0,0,0-5.706-4.268H38.171A23,23,0,0,0,28.848,38C19.659,38,11.707,42.451,7.91,50.9L25.478,68.376l.022-.022,3.033-2.92a7.747,7.747,0,0,1,5.392-2.179h25.88a15.458,15.458,0,0,0,10.783-4.381L88,38.07A5.875,5.875,0,0,0,87.3,29.848Z" transform="translate(554.86 457.305)"/>
    <path id="Path_3235" data-name="Path 3235" class="cls-3" d="M66.876,28.873A25.633,25.633,0,1,1,41.243,3.24,25.638,25.638,0,0,1,66.876,28.873Z" transform="translate(564.459 425.84)"/>
    <path id="Path_3236" data-name="Path 3236" class="cls-1" d="M46.768,5.369A5.369,5.369,0,1,1,41.4,0,5.369,5.369,0,0,1,46.768,5.369Z" transform="translate(589.913 421.801)"/>
    <path id="Path_3237" data-name="Path 3237" class="cls-1" d="M38.438,64.964,26.846,76.377,0,49.328,11.39,37.916a4.786,4.786,0,0,1,6.762,0L38.438,58.2A4.766,4.766,0,0,1,38.438,64.964Z" transform="translate(545 467.321)"/>
    <path id="Path_3238" data-name="Path 3238" class="cls-2" d="M24.14,42.539H40.113a5.523,5.523,0,0,0,5.526-5.527V35.44" transform="translate(575.092 465.978)"/>
    <line id="Line_74" data-name="Line 74" class="cls-2" x1="2.157" transform="translate(590.111 508.517)"/>
    <line id="Line_75" data-name="Line 75" class="cls-4" x2="20.444" y2="20.286" transform="translate(551.268 508.517)"/>
    <g id="Group_225" data-name="Group 225" transform="translate(593.929 442.502)">
      <path id="Path_3239" data-name="Path 3239" class="cls-5" d="M20.85,9.873a1.163,1.163,0,0,1,.315-.786,1.1,1.1,0,0,1,.854-.337h5.5a10.276,10.276,0,0,1,2.561.292,6.056,6.056,0,0,1,2.112.966,4.444,4.444,0,0,1,1.415,1.775,6.7,6.7,0,0,1,.517,2.786,6.152,6.152,0,0,1-1.033,3.752,5.138,5.138,0,0,1-2.606,1.82L34.127,26.9a.83.83,0,0,1,.112.247.774.774,0,0,1,.022.2,1.3,1.3,0,0,1-.2.674,2.28,2.28,0,0,1-.539.607,2.539,2.539,0,0,1-.719.427,2.043,2.043,0,0,1-.786.157,1.187,1.187,0,0,1-.719-.225,1.862,1.862,0,0,1-.539-.629L26.8,20.679H24.467v7.256a.91.91,0,0,1-.562.854,2.6,2.6,0,0,1-1.258.292,2.571,2.571,0,0,1-1.236-.292.91.91,0,0,1-.562-.854Zm3.617,2.067v5.931h3.055a3.4,3.4,0,0,0,2.179-.651,2.776,2.776,0,0,0,.809-2.291,2.858,2.858,0,0,0-.809-2.314,3.283,3.283,0,0,0-2.179-.674Z" transform="translate(-20.85 -8.75)"/>
      <path id="Path_3240" data-name="Path 3240" class="cls-5" d="M29.5,12.017a2.182,2.182,0,0,1,1.191.315.923.923,0,0,1,.472.809v.831a4.435,4.435,0,0,1,1.438-1.46,4.115,4.115,0,0,1,2.314-.651,4.529,4.529,0,0,1,1.954.449,4.707,4.707,0,0,1,1.6,1.236,6.215,6.215,0,0,1,1.056,1.8,5.856,5.856,0,0,1,.382,2.179v2.291a5.721,5.721,0,0,1-.4,2.134,6.1,6.1,0,0,1-1.078,1.82,5.536,5.536,0,0,1-1.55,1.258,4.078,4.078,0,0,1-5.482-1.73v6.964a.958.958,0,0,1-.539.786,2.4,2.4,0,0,1-1.3.359,1.992,1.992,0,0,1-1.258-.359.948.948,0,0,1-.494-.786V13.141a.9.9,0,0,1,.494-.809A2.127,2.127,0,0,1,29.5,12.017ZM36.327,17.5a2.2,2.2,0,0,0-.2-.921,3.178,3.178,0,0,0-.539-.809,2.279,2.279,0,0,0-.809-.562,2.432,2.432,0,0,0-.988-.2,3,3,0,0,0-.876.157,2.132,2.132,0,0,0-.764.494,2.721,2.721,0,0,0-.539.786,2.57,2.57,0,0,0-.2,1.033v2.786a1.337,1.337,0,0,0,.18.562,2.7,2.7,0,0,0,.517.674,2.925,2.925,0,0,0,.786.562,2.038,2.038,0,0,0,.966.225,1.95,1.95,0,0,0,.944-.225,2.868,2.868,0,0,0,.786-.584,2.941,2.941,0,0,0,.539-.831,2.275,2.275,0,0,0,.2-.921Z" transform="translate(-12.199 -4.873)"/>
    </g>
  </g>
</svg>
