<svg xmlns="http://www.w3.org/2000/svg" viewBox="0 0 162.81 109.5">
  <defs>
    <style>
      .cls-1, .cls-3, .cls-4, .cls-6 {
        fill: none;
        stroke: #2e2e2e;
        stroke-miterlimit: 10;
      }

      .cls-1, .cls-4, .cls-6 {
        stroke-linecap: round;
      }

      .cls-1, .cls-6 {
        stroke-width: 3px;
      }

      .cls-2, .cls-5 {
        fill: #00bed6;
      }

      .cls-3, .cls-4 {
        stroke-width: 2px;
      }

      .cls-4, .cls-6 {
        stroke-linejoin: round;
      }

      .cls-5 {
        fill-rule: evenodd;
      }

      .cls-7 {
        fill: #fff;
      }
    </style>
  </defs>
  <g id="Icon-01" transform="translate(-232.5 -438.144)">
    <line id="Line_50" data-name="Line 50" class="cls-1" x2="59.658" transform="translate(301.032 546.144)"/>
    <line id="Line_67" data-name="Line 67" class="cls-1" x2="31.673" transform="translate(234 536.656)"/>
    <g id="Group_191" data-name="Group 191" transform="translate(309.394 536.209)">
      <line id="Line_68" data-name="Line 68" class="cls-1" y2="9.935"/>
      <line id="Line_69" data-name="Line 69" class="cls-1" y2="9.935" transform="translate(42.935)"/>
    </g>
    <rect id="Rectangle_75" data-name="Rectangle 75" class="cls-2" width="33.971" height="38.461" transform="translate(295.342 477.492)"/>
    <path id="Path_3191" data-name="Path 3191" class="cls-1" d="M128.326,87.656H36.734a7.717,7.717,0,0,1-7.714-7.714V26.764a7.717,7.717,0,0,1,7.714-7.714h91.593a7.717,7.717,0,0,1,7.714,7.714V79.942A7.717,7.717,0,0,1,128.326,87.656Z" transform="translate(247.208 448.476)"/>
    <line id="Line_51" data-name="Line 51" class="cls-3" x2="33.987" transform="translate(295.342 514.533)"/>
    <line id="Line_52" data-name="Line 52" class="cls-3" x2="33.987" transform="translate(295.342 500.294)"/>
    <line id="Line_53" data-name="Line 53" class="cls-3" x2="33.987" transform="translate(295.342 493.166)"/>
    <line id="Line_54" data-name="Line 54" class="cls-3" x2="33.987" transform="translate(295.342 478.927)"/>
    <g id="Group_186" data-name="Group 186" transform="translate(295.342 507.313)">
      <line id="Line_55" data-name="Line 55" class="cls-3" x2="26.936" transform="translate(0 0.201)"/>
      <line id="Line_56" data-name="Line 56" class="cls-3" x2="4.273" transform="translate(29.713)"/>
    </g>
    <g id="Group_187" data-name="Group 187" transform="translate(295.342 486.054)">
      <line id="Line_57" data-name="Line 57" class="cls-3" x2="4.397"/>
      <line id="Line_58" data-name="Line 58" class="cls-3" x2="26.936" transform="translate(7.05)"/>
    </g>
    <line id="Line_59" data-name="Line 59" class="cls-1" x2="107.02" transform="translate(276.228 525.394)"/>
    <g id="Group_194" data-name="Group 194" transform="translate(0 3)">
      <rect id="Rectangle_76" data-name="Rectangle 76" class="cls-2" width="18.343" height="22.266" transform="translate(240.665 499.893)"/>
      <line id="Line_61" data-name="Line 61" class="cls-3" x2="18.343" transform="translate(240.665 515.212)"/>
      <line id="Line_62" data-name="Line 62" class="cls-3" x2="18.343" transform="translate(240.665 501.296)"/>
      <g id="Group_188" data-name="Group 188" transform="translate(240.665 522.031)">
        <line id="Line_63" data-name="Line 63" class="cls-3" x2="14.533" transform="translate(0 0.185)"/>
        <line id="Line_64" data-name="Line 64" class="cls-3" x2="2.299" transform="translate(16.045)"/>
      </g>
      <g id="Group_189" data-name="Group 189" transform="translate(240.665 508.254)">
        <line id="Line_65" data-name="Line 65" class="cls-3" x2="2.376"/>
        <line id="Line_66" data-name="Line 66" class="cls-3" x2="14.533" transform="translate(3.811)"/>
      </g>
    </g>
    <path id="Path_3192" data-name="Path 3192" class="cls-1" d="M1,84.068V40.208A4.622,4.622,0,0,1,5.628,35.58H28.044a4.622,4.622,0,0,1,4.628,4.628v43.86A4.622,4.622,0,0,1,28.044,88.7H5.628A4.622,4.622,0,0,1,1,84.068Z" transform="translate(233 457.447)"/>
    <path id="Path_3193" data-name="Path 3193" class="cls-4" d="M41.575,47.936h-.849a3.1,3.1,0,0,1-3.085-3.085V41.364A3.086,3.086,0,0,0,35.929,38.6L33.09,37.183l2.839-1.419A3.085,3.085,0,0,0,37.641,33V29.515a3.1,3.1,0,0,1,3.085-3.085h.849" transform="translate(249.417 452.481)"/>
    <path id="Path_3194" data-name="Path 3194" class="cls-4" d="M66.26,35.58h.849a3.1,3.1,0,0,1,3.085,3.085v3.487a3.086,3.086,0,0,0,1.712,2.762l2.839,1.419-2.839,1.419a3.086,3.086,0,0,0-1.712,2.762V54a3.1,3.1,0,0,1-3.085,3.085H66.26" transform="translate(267.419 457.447)"/>
    <g id="Group_193" data-name="Group 193" transform="translate(336.52 438.144)">
      <g id="Settings_1_">
        <g id="Group_192" data-name="Group 192">
          <path id="Path_3195" data-name="Path 3195" class="cls-5" d="M126.708,26.131a1.9,1.9,0,0,0-1.882-1.45,6.485,6.485,0,0,1-4.443-11.293,1.643,1.643,0,0,0,.185-2.222,29.227,29.227,0,0,0-4.659-4.705,1.634,1.634,0,0,0-2.237.185A6.765,6.765,0,0,1,106.344,8.3a6.527,6.527,0,0,1-3.965-6.387A1.631,1.631,0,0,0,100.929.2,29.666,29.666,0,0,0,94.311.182a1.635,1.635,0,0,0-1.45,1.682,6.545,6.545,0,0,1-4.027,6.279,6.81,6.81,0,0,1-7.282-1.651,1.643,1.643,0,0,0-2.222-.185,28.381,28.381,0,0,0-4.752,4.675,1.63,1.63,0,0,0,.17,2.237A6.52,6.52,0,0,1,76.4,20.547a6.792,6.792,0,0,1-6.4,3.98,1.609,1.609,0,0,0-1.7,1.45,29.312,29.312,0,0,0-.015,6.68,1.941,1.941,0,0,0,1.928,1.45,6.442,6.442,0,0,1,6.048,4.027A6.507,6.507,0,0,1,74.61,45.4a1.643,1.643,0,0,0-.185,2.222,29.773,29.773,0,0,0,4.644,4.705,1.647,1.647,0,0,0,2.237-.17,6.765,6.765,0,0,1,7.328-1.651,6.54,6.54,0,0,1,3.98,6.387,1.631,1.631,0,0,0,1.45,1.712,31.016,31.016,0,0,0,3.379.2,28.241,28.241,0,0,0,3.224-.185,1.635,1.635,0,0,0,1.45-1.682,6.51,6.51,0,0,1,4.027-6.264,6.8,6.8,0,0,1,7.282,1.651,1.645,1.645,0,0,0,2.222.185,28.566,28.566,0,0,0,4.752-4.705,1.647,1.647,0,0,0-.17-2.237,6.5,6.5,0,0,1-1.651-7.328,6.564,6.564,0,0,1,6.017-3.98l.37.015a1.653,1.653,0,0,0,1.728-1.435A29.587,29.587,0,0,0,126.708,26.131ZM97.535,39.26a9.812,9.812,0,1,1,9.812-9.812A9.827,9.827,0,0,1,97.535,39.26Z" transform="translate(-68.101 -0.005)"/>
        </g>
      </g>
      <circle id="Ellipse_58" data-name="Ellipse 58" class="cls-6" cx="17.279" cy="17.279" r="17.279" transform="translate(12.109 12.103)"/>
      <circle id="Ellipse_59" data-name="Ellipse 59" class="cls-7" cx="12.064" cy="12.064" r="12.064" transform="translate(17.323 17.317)"/>
      <circle id="Ellipse_60" data-name="Ellipse 60" class="cls-4" cx="6.171" cy="6.171" r="6.171" transform="translate(23.216 23.211)"/>
    </g>
  </g>
</svg>
