<?xml version="1.0" encoding="UTF-8"?>
<!DOCTYPE svg PUBLIC "-//W3C//DTD SVG 1.1//EN" "http://www.w3.org/Graphics/SVG/1.1/DTD/svg11.dtd">
<!-- Creator: CorelDRAW 2018 (64-Bit) -->
<svg xmlns="http://www.w3.org/2000/svg" xml:space="preserve" width="150px" height="136px" version="1.1" style="shape-rendering:geometricPrecision; text-rendering:geometricPrecision; image-rendering:optimizeQuality; fill-rule:evenodd; clip-rule:evenodd"
viewBox="0 0 67.3 61.06"
 xmlns:xlink="http://www.w3.org/1999/xlink">
 <defs>
  <style type="text/css">
   <![CDATA[
    .str3 {stroke:#00BED6;stroke-width:1.4;stroke-miterlimit:2.61313}
    .str0 {stroke:#2E2E2E;stroke-width:1.4;stroke-miterlimit:2.61313}
    .str1 {stroke:#2E2E2E;stroke-width:1.4;stroke-linecap:round;stroke-miterlimit:2.61313}
    .str2 {stroke:#2E2E2E;stroke-width:1.4;stroke-linecap:round;stroke-linejoin:round;stroke-miterlimit:2.61313}
    .fil0 {fill:none}
    .fil1 {fill:#00BED6}
    .fil2 {fill:white}
   ]]>
  </style>
   <clipPath id="id0">
    <path d="M0 0l67.3 0 0 61.06 -67.3 0 0 -61.06z"/>
   </clipPath>
 </defs>
 <g id="Layer_x0020_1">
  <metadata id="CorelCorpID_0Corel-Layer"/>
  <g>
  </g>
  <g style="clip-path:url(#id0)">
   <g>
    <g id="Tentang_x0020_-02.svg">
     <g id="Tentang_-02" data-name="Tentang -02">
      <path id="Path_3196" class="fil0 str0" d="M41.33 57.41l-11.16 0c0,0 -0.01,0 -0.01,0 -0.49,0 -0.98,-0.09 -1.43,-0.28l-3.95 -1.66c-0.45,-0.19 -0.95,-0.29 -1.44,-0.29 0,0 0,0 0,0l-16.27 0c0,0 0,0 0,0 -0.81,0 -1.48,-0.66 -1.48,-1.48l0 -10.11c0,-0.82 0.67,-1.48 1.48,-1.48 0,0 0,0 0,0l23.65 0c0.98,0 1.93,-0.39 2.63,-1.08l1.5 -1.48c0.69,-0.69 1.08,-1.63 1.08,-2.61 0,0 0,-0.01 0,-0.01l0 -4.2c0.01,-0.41 0.34,-0.74 0.75,-0.74 0,0 0,0 0,0l1.14 0c0,0 0,0 0.01,0 1.63,0 2.96,1.32 2.96,2.95l0 8.11" data-name="Path 3196"/>
      <path id="Path_3197" class="fil0 str0" d="M44.29 53.81l-5.92 0c0,0 0,0 0,0 -0.82,0 -1.49,0.66 -1.49,1.48l0 0.65c0,0.82 0.67,1.48 1.49,1.48 0,0 0,0 0,0l5.92 0c0,0 0,0 0,0 0.81,0 1.48,-0.66 1.48,-1.48l0 -0.65c0,0 0,0 0,0 0,-0.81 -0.66,-1.48 -1.47,-1.48 -0.01,0 -0.01,0 -0.01,0l0 0z" data-name="Path 3197"/>
      <path id="Path_3198" class="fil0 str0" d="M44.29 50.21l-5.92 0c0,0 0,0 0,0 -0.82,0 -1.49,0.66 -1.49,1.47l0 0.66c0,0.81 0.67,1.47 1.49,1.47 0,0 0,0 0,0l5.92 0c0,0 0,0 0,0 0.81,0 1.48,-0.66 1.48,-1.47l0 -0.66c0,0 0,0 0,0 0,-0.81 -0.66,-1.47 -1.47,-1.47 -0.01,0 -0.01,0 -0.01,0l0 0z" data-name="Path 3198"/>
      <path id="Path_3199" class="fil0 str0" d="M44.29 46.6l-5.92 0c0,0 0,0 0,0 -0.82,0 -1.49,0.66 -1.49,1.48l0 0.65c0,0.82 0.67,1.48 1.49,1.48 0,0 0,0 0,0l5.92 0c0,0 0,0 0,0 0.81,0 1.48,-0.66 1.48,-1.48l0 -0.65c0,-0.82 -0.66,-1.48 -1.48,-1.48 0,0 0,0 0,0l0 0z" data-name="Path 3199"/>
      <path id="Path_3200" class="fil0 str0" d="M44.29 42.99l-5.92 0c0,0 0,0 0,0 -0.82,0 -1.49,0.66 -1.49,1.48l0 0.65c0,0.82 0.67,1.48 1.49,1.48 0,0 0,0 0,0l5.92 0c0,0 0,0 0,0 0.81,0 1.48,-0.66 1.48,-1.48l0 -0.65c0,-0.82 -0.66,-1.48 -1.48,-1.48 0,0 0,0 0,0l0 0z" data-name="Path 3200"/>
      <path id="Path_3201" class="fil1" d="M22.58 57.15l-4.17 0c0,0 0,0 0,0 -0.82,0 -1.48,-0.66 -1.49,-1.48l0 -14.05c0.01,-0.82 0.67,-1.48 1.49,-1.48 0,0 0,0 0,0l4.17 0c0,0 0,0 0,0 0.82,0 1.48,0.66 1.49,1.48l0 14.05c0,0 0,0 0,0 0,0.82 -0.66,1.48 -1.48,1.48 0,0 -0.01,0 -0.01,0l0 0z" data-name="Path 3201"/>
      <line id="Line_70" class="fil0 str1" x1="20.5" y1="40.14" x2="20.5" y2= "52.01"  data-name="Line 70"/>
      <path id="Path_3202" class="fil1" d="M51.2 27.75l-5.42 3.89c-0.13,0.09 -0.28,0.14 -0.44,0.14 -0.4,0 -0.74,-0.33 -0.74,-0.74l0 -2.43c0,-0.58 -0.47,-1.05 -1.05,-1.05 0,0 0,0 -0.01,0l-7.55 0c-0.01,0 -0.01,0 -0.02,0 -1.74,0 -3.16,-1.42 -3.16,-3.16l0 -13.43c0,-1.75 1.42,-3.16 3.16,-3.16 0.01,0 0.01,0 0.02,0l22.54 0c0,0 0.01,0 0.01,0 1.75,0 3.16,1.41 3.17,3.16l0 13.42c-0.01,1.75 -1.42,3.16 -3.17,3.16 0,0 -0.01,0 -0.01,0l-6.71 0c-0.22,0 -0.44,0.08 -0.62,0.2z" data-name="Path 3202"/>
      <path id="Path_3203" class="fil2 str2" d="M55.04 10.96c0,-0.02 0,-0.03 0,-0.05 0,-4.02 -3.25,-7.27 -7.27,-7.27 -4.01,0 -7.27,3.25 -7.27,7.27 0,2.63 1.43,5.07 3.73,6.35l0 6.4 7.08 0 0 -6.4c2.3,-1.27 3.73,-3.68 3.73,-6.3l0 0z" data-name="Path 3203"/>
      <line id="Line_71" class="fil0 str2" x1="41.56" y1="19.79" x2="53.99" y2= "19.79"  data-name="Line 71"/>
      <ellipse id="Ellipse_61" class="fil0 str3" cx="47.77" cy="10.96" rx="3.42" ry="3.39" data-name="Ellipse 61"/>
      <ellipse id="Ellipse_62" class="fil0 str0" cx="47.77" cy="10.96" rx="2.09" ry="2.08" data-name="Ellipse 62"/>
     </g>
    </g>
   </g>
  </g>
  <polygon class="fil0" points="0,0 67.3,0 67.3,61.06 0,61.06 "/>
 </g>
</svg>
